{
  "type": "object",
  "properties": {
    "config": {
      "additionalProperties": false,
      "type": "object",
      "properties": {
        "name": {
          "description": "Name of the Samza job in Marathon",
          "type": "string",
          "default": "quotes-agg-composite"
        },
        "cpus": {
          "default": 0.2,
          "type": "number",
          "description": "cpu requirements"
        },
        "memory": {
          "default": 512,
          "type": "number"
        },
        "disk": {
          "description": "Disk (MB) to allocate to Samza job.",
          "type": "integer",
          "minimum": 500,
          "default": 500
        },
        "instances": {
          "default": 1,
          "type": "integer"
        },
        "jvm_opts": {
          "default": "-Dfile.encoding=UTF-8",
          "type": "string"
        },
        "config-path": {
          "default": "config/broker-instrument-composite.properties",
          "type": "string"
        },
        "kafka-connection": {
          "default": "http://master.mesos/service/confluent-kafka/v1/endpoints/broker",
          "type": "string"
        },
        "task-memory": {
          "default": 8192,
          "type": "integer"
        }
      },
      "required": [
        "instances",
        "cpus",
        "disk",
        "memory"
      ]
    }
  },
  "required": [
    "config"
  ]
}