{
  "assets": {
    "uris": {
      "samza-tgz": "http://nexus.tradefora.com/repository/raw/tf-samza-1.1-SNAPSHOT-dist.tar.gz",
      "jre-tgz": "http://nexus.tradefora.com/repository/raw/jre-8u72-linux-x64.tar.gz"
    }
  }
}
