{
  "type": "object",
  "properties": {
    "job": {
      "additionalProperties": false,
      "type": "object",
      "properties": {
        "name": {
          "description": "Name of the flink job executor in Marathon",
          "type": "string",
          "default": "orders-pipeline"
        },
                "env": {
          "description": "The name of the properties profile",
          "type": "string",
          "default": "prod"
        },        
        "cpus": {
          "default": 0.1,
          "maximum": 1,
          "type": "number",
          "description": "cpu requirements"
        },
        "memory": {
          "default": 512.0,
          "type": "number"
        },
        "disk": {
          "description": "Disk (MB) to allocate to flink job executor.",
          "type": "integer",
          "minimum": 500,
          "default": 500
        },
        "instances": {
          "default": 1,
          "type": "integer"
        },
        "vip-host": {
          "description": "VIP host",
          "type": "string",
          "default": "1.2.3.4"
        },
        "artifact": {
          "type": "object",
          "additionalProperties": false,
          "properties": {
            "repo": {
              "type": "string",
              "default": "https://nexus.tradefora.com/repository/maven-snapshots"
            },
            "group": {
              "type": "string",
              "default": "com.tradefora"
            },
            "artifactId": {
              "type": "string",
              "default": "tf-flink-orders-pipeline"
            },
            "packaging": {
              "type": "string",
              "default": "jar"
            },
            "classifier": {
              "type": "string",
              "default": "context"
            }
          }
        },
        "config": {
          "type": "object",
          "additionalProperties": false,
          "properties": {
            "ha": {
              "type": "object",
              "additionalProperties": false,
              "properties": {
                "mode": {
                  "type": "string",
                  "default": "zookeeper"
                },
                "zookeeper": {
                  "type": "object",
                  "additionalProperties": false,
                  "properties": {
                    "quorum": {
                      "type": "string",
                      "default": "zk-1.zk:2181,zk-2.zk:2181,zk-3.zk:2181"
                    },
                    "path": {
                      "type": "object",
                      "additionalProperties": false,
                      "properties": {
                        "root": {
                          "type": "string",
                          "default": "/flink"
                        },
                        "namespace": {
                          "type": "string",
                          "default": "/default_ns"
                        }
                      }
                    }
                  }
                }
              }
            },
            "spring": {
              "type": "object",
              "additionalProperties": false,
              "properties": {
                "profiles": {
                  "type": "string",
                  "default": "$CLUSTER,flink-jobs"
                }
              }
            },
            "kafkaConsumerId": {
              "type": "string",
              "default": "orders-stats"
            },
            "flink": {
              "type": "object",
              "additionalProperties": false,
              "properties": {
                "remote": {
                  "type": "boolean",
                  "default": true
                },
                "parallelism": {
                  "type": "integer",
                  "minimum": 8,
                  "default": 8
                },
                "savepoint": {
                  "type": "string",
                  "default": "none"
                }
              }
            }
          }
        }
      },
      "required": [
        "instances",
        "cpus",
        "disk",
        "memory",
        "vip-host",
        "artifact",
        "config"
      ]
    }
  },
  "required": [
    "job"
  ]
}
