{
    "$schema": "http://json-schema.org/schema#",
    "properties": {
        "service":{
            "type":"object",
            "description": "DC/OS service configuration properties",
            "properties":{
                "name" : {
                    "description":"The name of the influxdb service instance",
                    "type":"string",
                    "default":"influxdb"
                }
            }
        },
        "influxdb":{
            "additionalProperties": false,
            "description": "influxdb service configuration properties",
            "properties": {
                "cpus": {
                    "description": "CPU shares to allocate to each influxdb node.",
                    "type": "number",
                    "default": 0.3,
                    "minimum": 0.3
                },
                "mem": {
                    "description": "Memory to allocate to each influxdb node.",
                    "type": "number",
                    "default": 512.0,
                    "minimum": 512.0
                },
                "instances": {
                    "description": "Number of instances we should have running by mesos.",
                    "type": "integer",
                    "default": 1,
                    "minimum": 1
                },
                "vip_host": {
                    "description": "VIP host",
                    "type": "string",
                    "default": "1.2.3.4"
                },
                "vip_api_port": {
                    "description": "api port",
                    "type": "integer",
                    "default": 3086
                },
                "vip_web_port": {
                    "description": "web port",
                    "type": "integer",
                    "default": 3083
                },
                "force-pull-image":{
                    "description":"Forces docker to re-pull the image.",
                    "type":"boolean",
                    "default":true
                }
            },
            "required": [
                "cpus",
                "mem",
                "instances"
            ],
            "type": "object"
        }
    },
    "type": "object"
}
