{
  "assets": {
    "container": {
      "docker": {
        "app": "docker.tradefora.com/feedguard-analyzer:1.1-SNAPSHOT"
      }
    },
    "uris": {
      "docker-tgz": "http://nexus.tradefora.com/repository/raw/docker.tar.gz"
    }
  }
}
