{
  "type": "object",
  "properties": {
    "tf-admin": {
      "description": "Configuration properties",
      "type": "object",
      "properties": {
        "name": {
          "description": "The name of the ui. Until this is configurable, please do not change this from it's default value.",
          "type": "string",
          "default": "adminui"
        },
        "env": {
          "description": "The name of the cluster",
          "type": "string",
          "default": "prod"
        },
        "instances": {
          "description": "Number of ui instances to run in the cluster.",
          "type": "integer",
          "default": 1,
          "minimum": 1,
          "maximum": 3
        },
        "cpus": {
          "description": "CPU shares to allocate to each ui instance.",
          "type": "number",
          "default": 1
        },
        "disk": {
          "description": "Disk (MB) to allocate to each ui instance.",
          "type": "integer",
          "minimum": 0,
          "default": 0
        },
        "memory": {
          "description": "Memory (MB) to allocate to each ui instance.",
          "type": "integer",
          "default": 1000,
          "minimum": 1000
        },
        "container-port": {
          "description": "Container port.",
          "type": "integer",
          "default": 3002
        },
        "host-port": {
          "description": "A custom static port for ui, if desired. This assists with external load balancers to discover ui.",
          "type": "integer",
          "default": 0
        },
        "vip_host": {
          "description": "VIP host",
          "type": "string",
          "default": "1.2.3.4"
        },
        "vip_port": {
          "description": "VIP port",
          "type": "integer",
          "default": 10103
        },
        "force-pull-image":{
          "description":"Forces docker to re-pull the image.",
          "type":"boolean",
          "default":true
        }
      },
      "required": [
        "instances",
        "cpus",
        "disk",
        "memory",
        "container-port",
        "host-port",
        "vip_host",
        "vip_port"
      ]
    }
  },
  "required": [
    "tf-admin"
  ]
}
