{
  "type": "object",
  "properties": {
    "app": {
      "description": "Configuration properties",
      "type": "object",
      "properties": {
        "name": {
          "description": "The name of the service. Until this is configurable, please do not change this from it's default value.",
          "type": "string",
          "default": "uadc"
        },
        "target-cluster": {
          "description": "The name of the target mesos cluster",
          "type": "string",
          "default": "preprod"
        },
        "jvm-heap-size": {
          "description": "The max size for JVM heap",
          "type": "string",
          "default": "2048m"
        },
        "opts": {
          "description": "The app specific properties",
          "type": "string",
          "default": ""
        },
        "instances": {
          "description": "Number of instances to run in the cluster.",
          "type": "integer",
          "default": 1,
          "minimum": 1,
          "maximum": 10
        },
        "cpus": {
          "description": "CPU shares to allocate to each instance.",
          "type": "number",
          "default": 2
        },
        "disk": {
          "description": "Disk (MB) to allocate to each instance.",
          "type": "integer",
          "minimum": 0,
          "default": 0
        },
        "memory": {
          "description": "Memory (MB) to allocate to each instance.",
          "type": "integer",
          "default": 2560,
          "minimum": 2560
        },
        "container-port": {
          "description": "Container port.",
          "type": "integer",
          "default": 8080
        },
        "host-port": {
          "description": "A custom static port for app, if desired. This assists with external load balancers to discover app.",
          "type": "integer",
          "default": 0
        },
        "force-pull-image":{
          "description":"Forces docker to re-pull the image.",
          "type":"boolean",
          "default":true
        }
      },
      "required": [
        "instances",
        "cpus",
        "memory",
        "container-port",
        "host-port"
      ]
    }
  },
  "required": [
    "app"
  ]
}
