{
  "images": {
    "icon-small": "https://downloads.mesosphere.com/hdfs/assets/icon-service-hdfs-small.png",
    "icon-medium": "https://downloads.mesosphere.com/hdfs/assets/icon-service-hdfs-medium.png",
    "icon-large": "https://downloads.mesosphere.com/hdfs/assets/icon-service-hdfs-large.png"
  },
  "assets": {
    "uris": {
      "hbase-mesos-scheduler": "http://nexus.tradefora.com/repository/raw/hbase-mesos-0.1.0.tgz",
      "jre-tar-gz": "http://nexus.tradefora.com/repository/raw/jre-7u76-linux-x64.tar.gz"
    }
  }
}
